{
    "installed": {
        "client_id": "708903751266-ir6gpg7ck4d1okr8mimfqmqtj0qqeqjg.apps.googleusercontent.com",
        "project_id": "quickstart-1558599549658",
        "auth_uri": "https://accounts.google.com/o/oauth2/auth",
        "token_uri": "https://oauth2.googleapis.com/token",
        "auth_provider_x509_cert_url": "https://www.googleapis.com/oauth2/v1/certs",
        "client_secret": "g8XjzM9InQV4siZ66xTtPJDZ",
        "redirect_uris": [ "urn:ietf:wg:oauth:2.0:oob", "http://localhost", "http://emailappmanager2.azurewebsites.net" ]
    }
}